   95  mkdir LearnGit
   96  cd LearnGit
   97  ls
   98  ls -al
   99  pwd
  100  which git
  101  git init
  102  ls
  103  ls -al
  104  ls -l .git
  105  ls
  106  git status
  107  touch README.md
  108  ls
  109  vi README.md 
  110  ls
  111  cat README.md 
  112  ls
  113  git status
  114  git add README.md 
  115  git status
  116  git commit
  117  git status
