
  103  git status
  104  git help
  105  git help commit
  106  clear
  107  git log
  108  vi hello.txt
  109  ls
  110  git status
  111  touch wou.txt
  112  git status
  113  git add hello.txt
  114  git status
  115  git commit -m "add a hello world text file"
  116  git log
  117  git remote -v
  118  git remote add origin git@bitbucket.org:morses/inclassdemo.git
  119  git remote -v
  120  git status
  121  git push origin master
  122  git remote add origin https://morses@bitbucket.org/morses/inclassdemo.git
  123  git help remote
  124  git remote remove origin
  125  git remote -v
  126  git remote add origin https://morses@bitbucket.org/morses/inclassdemo.git
  127  git remote -v
  128  git push origin master
  129  git status
  130  ls
  131  vi wou.txy
  132  vi wou.txt
  133  ls
  134  git status
  135  git add .
  136  git status
  137  git commit -m "a new wou file"
  138  git status
  139  git push origin master
  140  git status
  141  cat hello.txt 
  142  ls
  143  git status
  144  git log
  145  vi hello.txt
  146  git status
  147  git add .
  148  git commit -m "super additions to hello"
  149  git status
  150  git log
  151  git pull origin master
  152  git status
  153  vi hello.txt
  154  git status
  155  git add .
  156  git commit -m "fixed merge conflict"
  157  git status
  158  git log
  159  git push origin master
  160  cv
  161  ls
  162  history > wed0926_white.txt
